{
  "canvas": {
    "width": 2000,
    "height": 2000,
    "scrollTop": 7,
    "scrollLeft": 1,
    "show": {
      "tableComment": true,
      "columnComment": true,
      "columnDataType": true,
      "columnDefault": true,
      "columnAutoIncrement": false,
      "columnPrimaryKey": true,
      "columnUnique": false,
      "columnNotNull": true,
      "relationship": true
    },
    "database": "MySQL",
    "databaseName": "challenges",
    "canvasType": "SQL",
    "language": "GraphQL",
    "tableCase": "pascalCase",
    "columnCase": "camelCase",
    "setting": {
      "relationshipDataTypeSync": true,
      "columnOrder": [
        "columnName",
        "columnDataType",
        "columnNotNull",
        "columnUnique",
        "columnAutoIncrement",
        "columnDefault",
        "columnComment"
      ]
    }
  },
  "table": {
    "tables": [
      {
        "name": "hackers",
        "comment": "",
        "columns": [
          {
            "name": "hacker_id",
            "comment": "",
            "dataType": "integer",
            "default": "",
            "option": {
              "autoIncrement": false,
              "primaryKey": true,
              "unique": false,
              "notNull": true
            },
            "ui": {
              "active": false,
              "pk": true,
              "fk": false,
              "pfk": false,
              "widthName": 60,
              "widthComment": 60,
              "widthDataType": 60,
              "widthDefault": 60
            },
            "id": "1a6d7c09-e8b9-9cde-32ea-c23ca9fae004"
          },
          {
            "name": "name",
            "comment": "",
            "dataType": "varchar",
            "default": "",
            "option": {
              "autoIncrement": false,
              "primaryKey": false,
              "unique": false,
              "notNull": true
            },
            "ui": {
              "active": false,
              "pk": false,
              "fk": false,
              "pfk": false,
              "widthName": 60,
              "widthComment": 60,
              "widthDataType": 60,
              "widthDefault": 60
            },
            "id": "76220f2f-5e14-e8c3-3ffd-01c26006ca66"
          }
        ],
        "ui": {
          "active": false,
          "left": 249,
          "top": 65,
          "zIndex": 119,
          "widthName": 60,
          "widthComment": 60
        },
        "id": "7b6a5f55-4fc0-6b9e-5f05-7de7b049381e"
      },
      {
        "name": "challenges",
        "comment": "",
        "columns": [
          {
            "name": "challenge_id",
            "comment": "",
            "dataType": "integer",
            "default": "",
            "option": {
              "autoIncrement": false,
              "primaryKey": true,
              "unique": false,
              "notNull": true
            },
            "ui": {
              "active": false,
              "pk": true,
              "fk": false,
              "pfk": false,
              "widthName": 75,
              "widthComment": 60,
              "widthDataType": 60,
              "widthDefault": 60
            },
            "id": "54d156ef-87e1-978b-8d66-59de6419478f"
          },
          {
            "name": "hacker_id",
            "comment": "",
            "dataType": "integer",
            "default": "",
            "option": {
              "autoIncrement": false,
              "primaryKey": false,
              "unique": false,
              "notNull": false
            },
            "ui": {
              "active": false,
              "pk": false,
              "fk": true,
              "pfk": false,
              "widthName": 60,
              "widthComment": 60,
              "widthDataType": 60,
              "widthDefault": 60
            },
            "id": "3fe7d478-8265-38a2-c731-28a6049859d4"
          }
        ],
        "ui": {
          "active": false,
          "left": 262,
          "top": 333,
          "zIndex": 117,
          "widthName": 64,
          "widthComment": 60
        },
        "id": "460c5d9c-ef16-9329-2b98-d64e655074f2"
      }
    ],
    "indexes": []
  },
  "memo": {
    "memos": []
  },
  "relationship": {
    "relationships": [
      {
        "identification": false,
        "start": {
          "tableId": "7b6a5f55-4fc0-6b9e-5f05-7de7b049381e",
          "columnIds": [
            "1a6d7c09-e8b9-9cde-32ea-c23ca9fae004"
          ],
          "x": 422.5,
          "y": 175,
          "direction": "bottom"
        },
        "end": {
          "tableId": "460c5d9c-ef16-9329-2b98-d64e655074f2",
          "columnIds": [
            "3fe7d478-8265-38a2-c731-28a6049859d4"
          ],
          "x": 443,
          "y": 333,
          "direction": "top"
        },
        "id": "7931b7f9-ca8e-3b02-d63a-c1bde7a7d85e",
        "relationshipType": "OneN"
      }
    ]
  }
}